﻿Pierwszy etap;;;;;
LP;Pytanie ;Prawidłowa odpowiedź;;;
1;Którą ręką salutuje się w wojsku polskim ;Prawą;Lewą;dowolną;tą po której stronie stoi dowódca
2;Przy której warszawskiej ulicy obraduje polski sejm? ;Wiejskiej;Marszałkowskiej;Szucha;Dolnej
3;Jak miał na imię poeta i dramatopisarz Asnyk ? ;Adam;Mariusz;Janusz;Anatol
4;W którym państwie jest Czelabińsk, gdzie w lutym 2013 roku spadł meteoryt ?;W Rosji;W Ukrainie;W Białorusi;W Czechach
5;Jak w arabskich baśniach brzmi zaklęcie, które otwierało wejście do tajemniczego skarbca?;Sezamie Otwórz się;Akrakadabra;Czary mary ;Alohomora 
6;Mianem której rzeszy określano niemieckie państwo w czasach dyktatury Hitlera?;Trzeciej;Drugiej;Pierwszej;Czwartej
7;Na którym morzu leży wyspa Bornoholm?;Bałtyckim;śródziemnym;Egejskim;Czarnym
8;Gwiazdozbiór wielkiej niedźwiedzicy jest widoczny w Polsce;Cały rok;Zimą;Latem;Wiosną i Jesienią
9;Galera to dawny typ okrętu. Co było głównym napędem Galery?;Wiosła;Żagle;Silnik parowy;Silnik benzynowy
10;"Którą grę sportową amerykanie nazywają ""Soccer""?";Piłkę nożną;Koszykówkę;Zbijaka;Hokej
11;Jak nazywamy rzemieślnika stawiającego piece?;Zdun;Piecarz;Kafalarz;Kowal
12;Z którego języka pochodzi słowo Surréalisme?;Francuskiego;Niemieckiego;Rosyjskiego;Greckiego
13;Kto przybył pod okienko panienki z piosenki wojskowej z 1914 roku?;Ułani;Złamani;Kozacy;Wojacy
14;W jakich jednostkach podaje się współrzędne geograficzne?;Stopniach, minutach, sekunach;Tylko w stopniach;Kilometrach;metrach
15;Jaką nazwę noszą niechciane wiadomości, które codziennie zalewają skrzynki poczty elektronicznej?;Spam;Mielonka;Śmieci;Span
16;W którym wieku doszło do podziału polski na dzielnice?;XII;XI;X;XIII
17;Brooklyn jest dzielnicą którego amerykańskiego Miasta?;Nowego Jorku;Nowego Oreanu;Waszyngtonu ;Chicago
18;"W którym mieście rozgrywa się akcja ""Quo Vadis"" Henryka Sienkiewicza?";W Rzymie;W Warszawie;W Moskwie;W Paryżu
19;Jak miał na imie ksiądz Skarga?;Piotr;Mateusz;Jerzy;Tomasz
20;Jaki kolor ma kasza gryczana?;Brązowy;Biały;Żółty;Czarny
21;W którym mieście jest meta samochodowego rajdu Monte Carlo;W Monako;We Francji;W Senegalu;W Egipcie
22;Ile jest na ziemi równoleżników zwanych zwrotnikami?;2;4;3;6
23;Tytułowa postać baśni braci Grimm ,która pewnego razu niosła obiad chorej babci i po drodze spotkała wilka to:;Czerwony kapturek;Sierotka Marysia;Kopciuszek;Myszka Miki
24;Jak z włokiego nazywa się tekst opery albo operetki?;Libretto;Carette ;Preghiere;Sedici
25;Jaki kąt tworzą wskazówki zegara o godzinie 15?;90st;25st;30st;60st
26;Jak miał na imię agent 007?;James ;John;Jeff;Jeremy
27;Który portal internetowy jest zrzeszony w grupie ITI?;Onet ;Wirtualna Polska;Arena;Interia
28;"Jak ma na imię pan Boczek z serialu ""Świad Według Kiepskich""?";Arnold ;Ferdynand;Marian;Waldemar
29;Ile piłkarzy liczy sobie drużyna w piłce nożnej?;11;9;10;12
30;Program informacyjny nadawany w telewizji TVN to:;Fakty ;Informacje;Wiadomości;Sygnały dnia
31;Jakiego koloru rybka obiecała rybakowi spełnić jego 3 życzenia?;złota ;srebna;czarna;brązowa
32;Jaki napój produkuje się z szyszek chmielu?;piwo ;wódkę;nalewkę;likier
33;Jakim czołgiem poruszali się czterej pancerni ze słynnego serialu?;Rudy 102;Szatyn 102;Blondyn 102;Brunet 102
34;"Przysłowie mówi ""gdzie drwa rąbią tam...""";wióry lecą;są deski;jest praca;ginie las
35;Do transportu morskiego ropy naftowej służa?;tankowce ;kontenery;kutry;transatlantyki
36;Kolorów nie rozróżnia:;daltonista ;abenista;kleptoman;dewiant
37;Narkozie poddaje się pacjentów przed:;operacją ;myciem zębów;jedzeniem;podpięciem kroplówki
38;Grupą krwi jest:;0;1;2;3
39;W skład karmelu wchodzi:;mleko ;olej;sezam;kakao
40;W którym roku Polska przystąpiła do Unii Europejskiej?;2004;1999;2003;2005
41;Na samym szczycie głównego masztu statku znajduje się gniazdo:;bocianie ;srocze;krucze;przepiórcze
42;Łzy fałszywe to łzy?;krokodyle ;bobrze;ptasie;psie
43;Pokrycie dachu wymagającego regularnego smołowania:;papa ;słoma;blacha;dachówka
44;Ile gramów mieści się w dekagramie?;10;100;1;2
45;Urząd podatkowy bywa nazywany:;fiskusem ;fikusem;komornikiem;kontrolerem
46;Czym, oprócz owadów, żywią się kolibry?;nektarem ;miodem;orzechami;liściami
47;Kto ze strony ZSRR podpisał traktat z Rzeszą Niemiecką o podziale Polski?;Mołotow ;Ribbentrop;Andropow;Stalin
48;Owocem jakiego drzewa są żołędzie?;dębu ;leszczyny;osiki;klonu
49;Stolicą Stanów Zjednoczonych jest:;Waszyngton ;Nowy Jork;Los Angeles;Nowy Orlean
50;"W co grają bohaterowie filmu ""Kosmiczny Mecz""?";w koszykówkę;w piłkę nożną;w siatkówke;w tenisa
;;;;;
Drugi etap;;;;;
LP;Pytanie ;Prawidłowa odpowiedź;;;
1;Jak nazywa się urządzenie w aparacie fotograficznym dozujące czas dostępu światła do elementu światłoczułego?;Migawka;Matyca;Przysłona;Obiektyw
2;Grypę wywołują;Wirusy;Bakterie;Grzyby;Pleśnie
3;Jak nazywamy typ muzyki oparty na kowbojskich balladach?;Country;Jazz;Rock ;Folk
4;Czyją ukochaną była Dalila, jednej z postaci biblijnej księgi sędziów?;Samsona;Herolda;Jezusa;Hioba
5;"Kto jest autorem słów ""Mazurka Dąbrowskiego""?";Józef Wybicki;Henryka Dąbrowskiego;Henryk Sienkiewicz;Adam Mickiewicz
6;Jak nazywa się ogół adwokatów;Palestra;Mea Coulpa;Mens Rea;Advocatius
7;Rodzina Foresterów to bohaterowie które tasiemcowego serialu emitowanego w telewizyjnej jedynce?;Moda na sukces;Słoneczny Patrol;Klan;Plebania
8;jaki kształt ma wielka litera grecka delta?;trójkąta;okręgu;prostokątu;trapezu
9;Grzie występuje czynnik Rh?;w krwi;w hormonach;w mięśniach;w żołądku
10;Proszę sobie wyobrazić największą trzycyfrową liczbę naturalną. Ile wynosi suma cyfr tej liczby?;27;200;9;18
11;Jak ma na imię bohaterka dzieła Luisa Carola,  która o mało nie utopiła się w kałuży własnych łez?;Alicja;Agnieszka;Karolina;Aleksandra
12;Jaki jest symbol chemiczny polonu?;Po;P;K;Al.
13;Historię schwytania którego terrorysty opowiada film Wróg nr Jeden w reżyserii Kathryn Bigelow? ;Osama Bin Ladena;Al. Kaida;Ramireza Sancheza;Andersa Breivka
14;Jak nazywa się największa egipska piramida?;Cheopsa;Chefrena;Mykerinosa;Słońca
15;Jakim zwierzątkiej jest tytułowa Szachrajtka z wiersza Jana Brzechwy?;Pchła;Wiewiórka;Mysz;Mrówka
16;Jak nazywa się wektorowa wielkość fizyczna równa iloczynowi masy i prędkości ciała?;Pęd;Siła;Energia;Waga
17;Początki teatru związane są z obrzędami ku czci boga wina. Jakie imię nosił ów bóg?;Dionizos;Atos;Ra;Bachus
18;Co oznacza francuskie wyrażenie faux pas?;fałszywy krok;pomieszczenie w budynku teatru;ognisko;kłamstwo
19;Którą część cerkwii oddziela od wiernnych przegroda zwana ikonostasem?;Ołtarz;Zakrystię;Chór;Poddasze
20;W którym wieku żył Ryszard Wagner, niemiecki kompozytor?;XIX;XX;XVIII;XII
21;W którym z wymienionych włoskim miast studiował Mikołaj Kopernik?;Bolonia;Rzym;Mediolan;Florencja
22;Przedstawiciela jakiej profesji nazywano w dawnej polsce Gwarkiem?;górnika;mówce;kominiarza;nauczyciela
23;który składnik promieniowania słonecznego wywołuje opaleniznę?;ultrafiolet;podczerwień;bliska podczewień;środkowa podczewień
24;Co należy do odważnych?;świat;ziemia;kraj;zwycięstwo
25;Pod jakim drzewem spotykali się Laura i Filon, bohaterowie sielanki Franciszka Karpińskiego?;Pod Jaworem;Pod Jabłonią;Pod Gruszą;Pod Kasztanem
26;Pierwszym dniem tygodnia w kalendarzu żydowskim jest:;niedziela ;piątek;sobota;poniedziałek
27;Przyłbica osłania:;twarz ;nogi;klatkę piersiową;ręce
28;Timon i Pumba to bohaterowie:;Króla Lwa;Księcia Egiptu;Pocahontas;Śniętego Mikołaja
29;Lordoza to wygięcie kręgosłupa:;do przodu;do tyłu;w lewo;w prawo
30;Ile punktów przyznaje się za rzut osobisty w koszykówce?;1;2;3;4
31;Gatunkiem czego jest Guiness?;piwa;whisky;wina;szampana
32;Zbudowany przez człowieka obiekt widoczny z kosmosu to:;Wielki Mur;Bajkonur;piramidy;Nowy Jork
33;Do wytwarzania czego nie słuzy ananas?;wina ;dżemu;włókna;kompotów
34;Bojerem można jeżdzić;po lodzie;po wodzie;po szosie;po linie
35;Który z mierników mierzy napięcie?;Woltomierz;Amperomierz;Faradomierz;Kulombomierz
36;Kolekcjonowanie monet to:;numizmatyka ;filantropia;filatelistyka;szuktnikarstwo
37;Panatenaje były greckimi świętami ku czci:;Ateny ;Apolla;Hery;Afrodyty
38;"W przysłowiu ""Mowa jest srebrem a milczenie...""";złotem ;ołowiem;bezcenne;majątkiem
39;Dieter Bohlen był członkiem zespołu:;Modern Talking;Abba;The Beatles;Budka Suflera
40;Z czego wykonywany jest śrut do strzelby?;z ołowiu;z mosiądzu;z miedzi;z żelaza
41;Tymczasowy rząd Polski powstały pod koniec wojny przy poparciu ZSRR to:;PKWN ;RK;PZPR;KC
42;Ile razy Adam Małysz zwyciężał w zawodach Pucharu Świata?;39;46;35;28
43;Naturalnym satelitą Ziemi jest:;Księżyc ;Słońce;Mars;Wenus
44;W którym polskim mieście na wieży ratuszowej raz na 24 godziny uderzają się rogami koziołki?;w Poznaniu;w Bydgoszczy;w Gdańsku;w Krakowie
45;Jak nazywa się tato Barta Simpsona?;Homer ;Eddie;David;Andrew
46;Ile medali olimpijskich zdobył Mateusz Kuśnierewicz?;2;1;3;4
47;Jak nazywa się długi, wygięty nóż, często używany w dżungli?;maczeta ;sztylet;kindżał;katana
48;Jezioro Turkusowe znajduje się na wyspie:;Wolin ;Bornholm;Wielkanocnej;Honsiu
49;Masa stosowana do wypełniania porów i pęknieć powierchni przeznaczonej do malowania:;szpachlówka ;cement;fuga;pokost
50;Kto był pierwszym prezesem Rady Ministrów III RP?;Tadeusz Mazowiecki;Jan Krzysztof Bielecki;Waldemar Pawlak;Józef Oleksy
;;;;;
Trzeci etap;;;;;
LP;Pytanie ;Prawidłowa odpowiedź;;;
1;Jakimi figurami geometrycznymi są boczne ściany ostrosłupa?;trójkątami;prostokątami;szcześciokąmi;pięciościanami
2;Który przypadek deklinacji odpowiada na pytanie kogo czego?;dopełniacz;celownik;mianownik;narzędnik
3;Do którego państwa należy półwysep Kamczatka?;do Rosji;do RPA;do Algerii;Do Etiopi
4;Otolaryngorogia zajmuje się leczeniem którego narządu?;Uszu;Oczu;Stóp;Serca
5;W którym roku Polskie Radio zaczęło nadawać regularne audycje?;1926;1918;1943;1912
6;Co oznacza łacińska maksyma pacta sunt servanda?;umów należy dotrzymywać ;umowa została zawarta;pakt został zerwany;umowa jest nieważna
7;Jak nazywał się korsykański oficer, który w wieku 25 lat dosłużył się stopnia generała w armii francuskiej?;Napolen Bonaparte;Nicolas Savin;Pierre Joliot;William Reginald Hall
8;"Kto zagrał rolę Jagny w filmie ""Chłopi"" Jana Rybkowskiego?";Emilia Krakowska;Krystyna Królówna;Magdalena Wołłejko;Zofia Merle
9;W czewcu 1967 roku na bliskim wschodzie wybuchła wojna między Egiptem Syrią Jordanią a Izraelem. Jaka jest potoczna nazwa tego konfliktu?;Wojna sześciodniowa;Pierwsza wojna;Kampania sueska;Bitwa o wodę
10;Jak po włosku nazywa się krwawa zemsta, odwet za krzywdę wyrządzoną członkowi roku?;Vendetta;rappresaglia;sangue;gamberetto
11;Bucefał był koniem:;Aleksandra Wielkiego;Jana III Sobieskiego;Józefa Piłsudskiego;Juliusza Cezara
12;Ile mendli zmieści się w dziesięciu tuzinach?;8;2;4;6
13;Czyim synem był mityczny Telemach?;Odyseusza ;Achillesa;Edypa;Perseusza
14;Jaki narkotyk związany był z początkami ruchu hipisów?;Lsd ;heroina;kokaina;ecstasy
15;Widma światła białego uzyskuje się na dyfrakcyjnej:;siatce ;tkaninie;blasze;tekturze
16;Atak na Pearl Harbor rozpoczął wojnę USA z:;Japonią ;Chinami;Niemcami;Meksykiem
17;Kapodaster przyda się podczas gry:;na gitarze;na perkusji;na keyboardzie;na tubie
18;Cząsteczki złożone z jednego lub więcej atomów obdarzone ujemnym ładunkiem to:;jony;elektrony;aniony;protony
19;Ekonomista, którego był twórca podstaw europejskiego systemu walutowego:;Keynes ;Marshall;Friedman;Brunner
20;Jak w geologii nazywa się jądro Ziemi?;barysfera ;litosfera;hydrosfera;jonosfera
